Exam1_Frost
…
#Print 
print(robin_winter)

## # A tibble: 35 × 2
##    winter_year total_observations
##          <dbl>              <int>
##  1        1989                110
##  2        1990                 60
##  3        1991                102
##  4        1992                294
##  5        1993                273
##  6        1994                203
##  7        1995                947
##  8        1996                259
##  9        1997                726
## 10        1998                843
## # ℹ 25 more rows
…
